Homework 4
…
who_final<-who %>%
 gather(code, value, new_sp_m014:newrel_f65, na.rm = TRUE) %>%
 mutate(
 code = stringr::str_replace(code, "newrel", "new_rel")
 ) %>%
 separate(code, c("new", "var", "sexage")) %>%
 select(-new,-iso2,-iso3) %>%
  separate(country,into=c("iso2"),sep=2,remove=F,)%>%
  separate(country,into=c("iso3"),sep=3,remove=F,)%>%
 separate(sexage, c("sex", "age"), sep = 1)

who%>%count(country)

## # A tibble: 219 x 2
##    country                 n
##    <chr>               <int>
##  1 Afghanistan            34
##  2 Albania                34
##  3 Algeria                34
##  4 American Samoa         34
##  5 Andorra                34
##  6 Angola                 34
##  7 Anguilla               34
##  8 Antigua and Barbuda    34
##  9 Argentina              34
## 10 Armenia                34
## # ... with 209 more rows

who%>%count(country,iso2,iso3)

## # A tibble: 219 x 4
##    country             iso2  iso3      n
##    <chr>               <chr> <chr> <int>
##  1 Afghanistan         AF    AFG      34
##  2 Albania             AL    ALB      34
##  3 Algeria             DZ    DZA      34
##  4 American Samoa      AS    ASM      34
##  5 Andorra             AD    AND      34
##  6 Angola              AO    AGO      34
##  7 Anguilla            AI    AIA      34
##  8 Antigua and Barbuda AG    ATG      34
##  9 Argentina           AR    ARG      34
## 10 Armenia             AM    ARM      34
## # ... with 209 more rows

It can be achieved by using separate argument, as iso3 takes first three characters of country and iso2 takes the first two. The number of rows whether or not contain iso2 and iso3 stay the same, so its redundant as it will not change the origianl datasets. ## Exercise 4

who_final2<-who_final%>%group_by(country,year,sex)%>%summarize(count=sum(value))

## `summarise()` regrouping output by 'country', 'year' (override with `.groups` argument)

who_final2

## # A tibble: 6,921 x 4
## # Groups:   country, year [3,484]
##    country      year sex   count
##    <chr>       <int> <chr> <int>
##  1 Afghanistan  1997 f       102
##  2 Afghanistan  1997 m        26
##  3 Afghanistan  1998 f      1207
##  4 Afghanistan  1998 m       571
##  5 Afghanistan  1999 f       517
##  6 Afghanistan  1999 m       228
##  7 Afghanistan  2000 f      1751
##  8 Afghanistan  2000 m       915
##  9 Afghanistan  2001 f      3062
## 10 Afghanistan  2001 m      1577
## # ... with 6,911 more rows
…
