Analysis 3: Statistical Programming with Traffic Data
…
          }else if(x[i] %in% c(6,13,20,27)){"Th"

          }else{ "F"

          }
}

  return(y.factor)
}
  
DATA1$DAYNAME = DAYNAME.func(DATA1$DAY) #DO NOT CHANGE
DATA2$DAYNAME = DAYNAME.func(DATA2) #DO NOT CHANGE
DATA1 #DO NOT CHANGE

## # A tibble: 9,600 x 10
##     L101  L102  L103  L104  L106  L107  L108   DAY  TIME DAYNAME
##    <dbl> <dbl> <dbl> <dbl> <dbl> <dbl> <dbl> <int> <int> <fct>  
##  1  1.58 21.3   12.8  56.1 13.6   7.87 12.8      3     1 M      
##  2  3.34 10.4   10.4  26.2 13.0   4.92  6.50     3     2 M      
##  3  2.76 11.0   10.4  28.2 12.2   6.1   8.66     3     3 M      
##  4  3.15 23.8   17.3  35.2 17.7   6.3  13.6      3     4 M      
##  5  3.15 20.5   12.0  43.1 16.9   6.69  8.46     3     5 M      
##  6  1.18  6.50  10.0  26.2  8.46  4.53  3.15     3     6 M      
##  7  3.74 13.2   10.2  26.2 14.2   6.10  5.90     3     7 M      
##  8  3.54 15.6   11.2  29.7 10.8   6.70  5.12     3     8 M      
##  9  3.34 22.6    6.1  37.0 11.6   6.3   6.5      3     9 M      
## 10  2.76 15.2   11.2  34.1 16.7   8.07  6.70     3    10 M      
## # ... with 9,590 more rows

DATA2 #DO NOT CHANGE

## # A tibble: 9,600 x 10
##     L101  L102  L103  L104  L106  L107  L108   DAY  TIME DAYNAME
##    <dbl> <dbl> <dbl> <dbl> <dbl> <dbl> <dbl> <int> <int> <fct>  
##  1    12    75    76    76    88    73    66     3     1 M      
##  2    23    61    68    62    89    52    56     3     2 M      
##  3    19    60    67    66    94    56    50     3     3 M      
##  4    20    65    80    73   107    59    65     3     4 M      
##  5    25    86    79    71   107    60    61     3     5 M      
##  6    10    39    38    40    53    41    21     3     6 M      
##  7    26    65    73    63    96    61    48     3     7 M      
##  8    24    76    77    65    89    62    48     3     8 M      
##  9    19    84    56    71    78    61    50     3     9 M      
## 10    21    82    61    64    97    71    54     3    10 M      
## # ... with 9,590 more rows
…
